/**
 *
 */

/*!
 *
 */

 /*! \class Test
    \brief A test class.

    A more detailed class description.
*/

//! A pure virtual member.
/*!
  \sa testMe()
  \param c1 the first argument.
  \param c2 the second argument.
*/
